<?xml version="1.0" encoding="utf-8"?>
<!-- Generator: Adobe Illustrator 23.1.0, SVG Export Plug-In . SVG Version: 6.00 Build 0)  -->
<svg version="1.1" id="图层_1" xmlns="http://www.w3.org/2000/svg" xmlns:xlink="http://www.w3.org/1999/xlink" x="0px" y="0px"
	 viewBox="0 0 595.28 841.89" style="enable-background:new 0 0 595.28 841.89;" xml:space="preserve">
<style type="text/css">
	.st0{fill:#FFFFFF;}
	.st1{clip-path:url(#SVGID_2_);fill:#406CB4;}
	.st2{clip-path:url(#SVGID_2_);fill:none;stroke:#FFFFFF;stroke-width:2;stroke-linejoin:round;stroke-miterlimit:10;}
	.st3{clip-path:url(#SVGID_4_);fill:#E37933;}
	.st4{clip-path:url(#SVGID_4_);fill:none;stroke:#FFFFFF;stroke-width:2;stroke-linejoin:round;stroke-miterlimit:10;}
	.st5{clip-path:url(#SVGID_6_);fill:#A5A5A5;}
	.st6{clip-path:url(#SVGID_6_);fill:none;stroke:#FFFFFF;stroke-width:2;stroke-linejoin:round;stroke-miterlimit:10;}
	.st7{clip-path:url(#SVGID_8_);fill:#F5BA1A;}
	.st8{clip-path:url(#SVGID_8_);fill:none;stroke:#FFFFFF;stroke-width:2;stroke-linejoin:round;stroke-miterlimit:10;}
	.st9{clip-path:url(#SVGID_12_);fill:none;stroke:#FFFFFF;stroke-width:2;stroke-linejoin:round;stroke-miterlimit:10;}
	.st10{clip-path:url(#SVGID_14_);}
	.st11{clip-path:url(#SVGID_16_);fill:none;stroke:#FFFFFF;stroke-width:2;stroke-linejoin:round;stroke-miterlimit:10;}
	.st12{clip-path:url(#SVGID_20_);fill:none;stroke:#FFFFFF;stroke-width:2;stroke-linejoin:round;stroke-miterlimit:10;}
	.st13{clip-path:url(#SVGID_24_);fill:none;stroke:#FFFFFF;stroke-width:2;stroke-linejoin:round;stroke-miterlimit:10;}
</style>
<rect x="119.42" y="311.73" class="st0" width="357" height="218"/>
<g>
	<defs>
		<rect id="SVGID_1_" x="119.42" y="311.73" width="357" height="218"/>
	</defs>
	<clipPath id="SVGID_2_">
		<use xlink:href="#SVGID_1_"  style="overflow:visible;"/>
	</clipPath>
	<path class="st1" d="M298.13,351.2c39.99,0,72.4,32.42,72.4,72.4c0,9.51-1.87,18.92-5.51,27.71l-66.89-27.71V351.2z"/>
	<path class="st2" d="M298.13,351.2c39.99,0,72.4,32.42,72.4,72.4c0,9.51-1.87,18.92-5.51,27.71l-66.89-27.71V351.2z"/>
</g>
<g>
	<defs>
		<rect id="SVGID_3_" x="119.42" y="311.73" width="357" height="218"/>
	</defs>
	<clipPath id="SVGID_4_">
		<use xlink:href="#SVGID_3_"  style="overflow:visible;"/>
	</clipPath>
	<path class="st3" d="M365.02,451.31c-11.21,27.06-37.61,44.7-66.89,44.7l0-72.4L365.02,451.31z"/>
	<path class="st4" d="M365.02,451.31c-11.21,27.06-37.61,44.7-66.89,44.7l0-72.4L365.02,451.31z"/>
</g>
<g>
	<defs>
		<rect id="SVGID_5_" x="119.42" y="311.73" width="357" height="218"/>
	</defs>
	<clipPath id="SVGID_6_">
		<use xlink:href="#SVGID_5_"  style="overflow:visible;"/>
	</clipPath>
	<path class="st5" d="M298.13,496.01c-37.78,0-69.22-29.06-72.18-66.72l72.18-5.68V496.01z"/>
	<path class="st6" d="M298.13,496.01c-37.78,0-69.22-29.06-72.18-66.72l72.18-5.68V496.01z"/>
</g>
<g>
	<defs>
		<rect id="SVGID_7_" x="119.42" y="311.73" width="357" height="218"/>
	</defs>
	<clipPath id="SVGID_8_">
		<use xlink:href="#SVGID_7_"  style="overflow:visible;"/>
	</clipPath>
	<path class="st7" d="M225.95,429.28c-3.14-39.86,26.64-74.72,66.5-77.86c1.89-0.15,3.79-0.22,5.68-0.22v72.4L225.95,429.28z"/>
	<path class="st8" d="M225.95,429.28c-3.14-39.86,26.64-74.72,66.5-77.86c1.89-0.15,3.78-0.22,5.68-0.22l0,72.4L225.95,429.28z"/>
</g>
<g>
	<defs>
		<rect id="SVGID_9_" x="119.42" y="311.73" width="357" height="218"/>
	</defs>
	<clipPath id="SVGID_10_">
		<use xlink:href="#SVGID_9_"  style="overflow:visible;"/>
	</clipPath>
</g>
<g>
	<defs>
		<rect id="SVGID_11_" x="119.42" y="311.73" width="357" height="218"/>
	</defs>
	<clipPath id="SVGID_12_">
		<use xlink:href="#SVGID_11_"  style="overflow:visible;"/>
	</clipPath>
	<rect x="164.42" y="512.73" class="st9" width="5" height="5"/>
</g>
<g>
	<defs>
		<rect id="SVGID_13_" x="119.42" y="311.73" width="357" height="218"/>
	</defs>
	<clipPath id="SVGID_14_">
		<use xlink:href="#SVGID_13_"  style="overflow:visible;"/>
	</clipPath>
	<g class="st10">
	</g>
</g>
<g>
	<defs>
		<rect id="SVGID_15_" x="119.42" y="311.73" width="357" height="218"/>
	</defs>
	<clipPath id="SVGID_16_">
		<use xlink:href="#SVGID_15_"  style="overflow:visible;"/>
	</clipPath>
	<rect x="246.42" y="512.73" class="st11" width="5" height="5"/>
</g>
<g>
	<defs>
		<rect id="SVGID_17_" x="119.42" y="311.73" width="357" height="218"/>
	</defs>
	<clipPath id="SVGID_18_">
		<use xlink:href="#SVGID_17_"  style="overflow:visible;"/>
	</clipPath>
</g>
<g>
	<defs>
		<rect id="SVGID_19_" x="119.42" y="311.73" width="357" height="218"/>
	</defs>
	<clipPath id="SVGID_20_">
		<use xlink:href="#SVGID_19_"  style="overflow:visible;"/>
	</clipPath>
	<rect x="332.42" y="512.73" class="st12" width="5" height="5"/>
</g>
<g>
	<defs>
		<rect id="SVGID_21_" x="119.42" y="311.73" width="357" height="218"/>
	</defs>
	<clipPath id="SVGID_22_">
		<use xlink:href="#SVGID_21_"  style="overflow:visible;"/>
	</clipPath>
</g>
<g>
	<defs>
		<rect id="SVGID_23_" x="119.42" y="311.73" width="357" height="218"/>
	</defs>
	<clipPath id="SVGID_24_">
		<use xlink:href="#SVGID_23_"  style="overflow:visible;"/>
	</clipPath>
	<rect x="381.42" y="512.73" class="st13" width="5" height="5"/>
</g>
</svg>
